	Leafname	Compound	KS_index	geneSeqID	Clade
0	leinamycin|KS1|AF484556|AAN85522|LnmI|KS1|0OXZ	leinamycin	KS1	AF484556	III_c
1	virginiamycin|KS7|AB283030|BAF50720|VirH|KS1|0OXZ	virginiamycin	KS7	AB283030	III_c
2	griseoviridin|KS7|JX508597|AGN74895|SgvE4|KS1|?	griseoviridin	KS7	JX508597	III_c
3	rhizoxins|KS2|AM411073|CAL69889|RhiB|KS1|0OXZ	rhizoxins	KS2	AM411073	III_c
4	chivosazole|KS10|DQ065771|AAY89051|ChiD|KS1|0OXZ	chivosazole	KS10	DQ065771	III_c
5	rhizopodin|KS11|FR854394|CCA89328|RizD|KS1|?	rhizopodin	KS11	FR854394	III_c
6	disorazole|KS9|DQ013294|AAY32966|DszC|KS1|0OXZ	disorazole	KS9	DQ013294	III_c
7	thailanstatin|KS2|JX307851|AGN11880|TstC|KS2|?	thailanstatin	KS2	JX307851	III_b
8	FR901464|KS2|HM047288|ADH01484|Fr9C|KS2|?	FR901464	KS2	HM047288	III_b
9	tolytoxin|KS11|?|?|?|KS?|?	tolytoxin	KS11	?	III_b
10	misakinolide|KS11|?|?|?|KS?|0dH	misakinolide	KS11	?	III_b
11	luminaolid|KS11|?|?|?|?|?	luminaolid	KS11	?	III_b
12	thailandamide|KS16|NC_007650|YP_439858|BTH_II1664|KS1|0ENOLETH	thailandamide	KS16	NC_007650	III_b
13	oxazolomycin|KS7|EF552687|ABS90471|OzmJ|KS2|0KlOM	oxazolomycin	KS7	EF552687	III_b
14	bryostatin|KS11|DQ889941|ABM63528|BryC|KS4|0dH	bryostatin	KS11	DQ889941	III_b
15	nosperin|KS8|GQ979609|ADA69239|NspC|KS5|	nosperin	KS8	GQ979609	III_b
16	FR901464|KS10|HM047288|ADH01490|Fr9I|KS1|?	FR901464	KS10	HM047288	III_a
17	thailanstatin|KS11|JX307851|AGN11883|TstI|KS1|?	thailanstatin	KS11	JX307851	III_a
18	rhizopodin|KS19|FR854394|CCA89329|RizE|KS3|?	rhizopodin	KS19	FR854394	III_a
19	oocydin_Ddad|KS11|CP001654|ACS85231|OocR|KS1|?	oocydin_Ddad	KS11	CP001654	III_a
20	oocydin_Smar|KS11|JX315603|AFX60317|OocR|KS1|?	oocydin_Smar	KS11	JX315603	III_a
21	diaphorin|KS4|CP003468|AGS06887|DipT|KS1|?	diaphorin	KS4	CP003468	III_a
22	pederin|KS4|AY328023|AAS47564|PedF|KS1|0hemi	pederin	KS4	AY328023	III_a
23	onnamide|KS4|AY688304|AAV97877|OnnI|KS1|0hemi	onnamide	KS4	AY688304	III_a
24	nosperin|KS4|GQ979609|ADA69239|NspC|KS1|	nosperin	KS4	GQ979609	III_a
25	mupirocin|KS1|AF318063|AAM12909|MmpA|KS1|0dH	mupirocin	KS1	AF318063	III_a
26	psymberin|KS3|FJ823461|ADA82585|PsyD|KS1|0lH	psymberin	KS3	FJ823461	III_a
27	myxovirescin|KS3|CP000113|ABF85931|Ta1|KS3|0H	myxovirescin	KS3	CP000113	III_a
28	oocydin_Smar|KS5|JX315603|AFX60313|OocN|KS1|?	oocydin_Smar	KS5	JX315603	III_a
29	oocydin_Ddad|KS5|CP001654|ACS85227|OocN|KS1|?	oocydin_Ddad	KS5	CP001654	III_a
30	phormidolide|KS9|ALVN01000014|EKU96420|?|KS1|?	phormidolide	KS9	ALVN01000014	III_a
31	rhizoxins|KS1|AM411073|CAL69888|RhiA|KS1|0AcGNAT	rhizoxins	KS1	AM411073	III_a
32	bacillaene_Bamy|KS14|AJ634060|CAG23961|BaeR|KS2|0shDM	bacillaene_Bamy	KS14	AJ634060	III_a
33	bacillaene_Bsub|KS15|AL009126|CAB13606|PksR|KS2|?	bacillaene_Bsub	KS15	AL009126	III_a
34	seudotrienic_acid|KS5|AKJU01000004|EJM18770|?|KS2|?	seudotrienic_acid	KS5	AKJU01000004	III_a
35	thailandamide|KS4|NC_007650|YP_439868|BTH_II1674|KS4|0eD	thailandamide	KS4	NC_007650	III_a
36	oocydin_Ddad|KS10|CP001654|ACS85227|OocN|KS6|?	oocydin_Ddad	KS10	CP001654	III_a
37	oocydin_Smar|KS10|JX315603|AFX60313|OocN|KS6|?	oocydin_Smar	KS10	JX315603	III_a
38	etnangien|KS14|NC_010162|YP_001613830|EtnG|KS4|0Hbimod	etnangien	KS14	NC_010162	III_g
39	difficidin|KS10|AJ634062|CAJ57409|DifI|KS4|H_D	difficidin	KS10	AJ634062	III_g
40	elansolid_Csan|KS7|HQ680975|AEC04361|ElaO|KS2|?	elansolid_Csan	KS7	HQ680975	III_g
41	elansolid_Cpin|KS7|CP001699|ACU62723|ElsN|KS2|H	elansolid_Cpin	KS7	CP001699	III_g
42	basiliskamides|KS5|NZ_AXBT01000013|WP_022584873|P615_14880|KS3|?	basiliskamides	KS5	NZ_AXBT01000013	III_g
43	seudotrienic_acid|KS3|AKJU01000004|EJM18771|?|KS3|?	seudotrienic_acid	KS3	AKJU01000004	III_f
44	elansolid_Csan|KS9|HQ680975|AEC04362|ElaP|KS2|?	elansolid_Csan	KS9	HQ680975	III_f
45	elansolid_Cpin|KS9|CP001699|ACU62722|ElsO|KS2|H	elansolid_Cpin	KS9	CP001699	III_f
46	bacillaene_Bsub|KS10|AL009126|CAB13603|PksM|KS3|?	bacillaene_Bsub	KS10	AL009126	III_f
47	oocydin_Smar|KS15|JX315603|AFX60318|OocS|KS3|?	oocydin_Smar	KS15	JX315603	III_f
48	oocydin_Ddad|KS15|CP001654|ACS85232|OocS|KS3|?	oocydin_Ddad	KS15	CP001654	III_f
49	etnangien|KS20|NC_010162|YP_001613832|EtnI|KS4|lH	etnangien	KS20	NC_010162	III_f
50	etnangien|KS12|NC_010162|YP_001613830|EtnG|KS2|lH	etnangien	KS12	NC_010162	III_f
51	etnangien|KS10|NC_010162|YP_001613829|EtnF|KS3|lH	etnangien	KS10	NC_010162	III_f
52	bryostatin|KS?|DQ889941|ABM63529|BryX|KS3|?	bryostatin	KS?	DQ889941	III_e
53	FR901464|KS3|HM047288|ADH01484|Fr9C|KS3|?	FR901464	KS3	HM047288	III_e
54	thailanstatin|KS3|JX307851|AGN11880|TstC|KS3|?	thailanstatin	KS3	JX307851	III_e
55	oocydin_Ddad|KS16|CP001654|ACS85232|OocS|KS4|?	oocydin_Ddad	KS16	CP001654	III_e
56	oocydin_Smar|KS16|JX315603|AFX60318|OocS|KS4|?	oocydin_Smar	KS16	JX315603	III_e
57	phormidolide|KS15|ALVN01000014|EKU96419|?|KS3|?	phormidolide	KS15	ALVN01000014	III_e
58	elansolid|KS14|CP001699|ACU62720|ElsQ|KS1|0D	elansolid	KS14	CP001699	III_d
59	elansolid_Csan|KS14|HQ680975|AEC04364|ElaR|KS1|?	elansolid_Csan	KS14	HQ680975	III_d
60	pederin|KS13|AY328023|AAS47562|PedH|KS4|0D	pederin	KS13	AY328023	III_d
61	tolytoxin|KS19|?|?|?|KS?|?	tolytoxin	KS19	?	III_d
62	luminaolid|KS18|?|?|?|?|?	luminaolid	KS18	?	III_d
63	misakinolide|KS19|?|?|?|KS?|0eD	misakinolide	KS19	?	III_d
64	sorangicin|KS8|HM584908|ADN68477|SorB|KS1|0zD	sorangicin	KS8	HM584908	III_d
65	bongkrekic_acid|KS12|JX173632|AFN27483|BonD|KS3|?	bongkrekic_acid	KS12	JX173632	III_d
66	sorangicin|KS24|HM584908|ADN68484|SorI|KS2|0zD	sorangicin	KS24	HM584908	III_d
67	enacyloxin|KS11|CP000442|ABI91464|Bamb_5919|KS2|?	enacyloxin	KS11	CP000442	III_d
68	seudotrienic_acid|KS9|AKJU01000004|EJM18768|?|KS1|?	seudotrienic_acid	KS9	AKJU01000004	III_d
69	rhizoxins|KS16|AM411073|CAL69894|RhiF|KS2|0eD	rhizoxins	KS16	AM411073	III_d
70	mupirocin|?|AF318063|AAM12925|MmpE|KS1|?	mupirocin	?	AF318063	III_d
71	disorazole|KS8|DQ013294|AAY32965|DszB|KS4|0zD	disorazole	KS8	DQ013294	III_d
72	rhizoxins|KS11|AM411073|CAL69891|RhiD|KS3|0shDdM	rhizoxins	KS11	AM411073	III_d
73	bacillaene_Bsub|KS14|AL009126|CAB13606|PksR|KS1|?	bacillaene_Bsub	KS14	AL009126	III_d
74	bacillaene_Bamy|KS13|AJ634060|CAG23961|BaeR|KS1|0shD	bacillaene_Bamy	KS13	AJ634060	III_d
75	onnamide|KS10|?|?|?|KS?|0R	onnamide	KS10	?	III_d
76	nosperin|KS6|GQ979609|ADA69239|NspC|KS3|	nosperin	KS6	GQ979609	III_d
77	chivosazole|KS18|DQ065771|AAY89053|ChiF|KS4|0zD	chivosazole	KS18	DQ065771	III_d
78	disorazole|KS10|DQ013294|AAY32966|DszC|KS2|0OXZ	disorazole	KS10	DQ013294	III_d
79	rhizopodin|KS10|FR854394|CCA89327|RizC|KS2|?	rhizopodin	KS10	FR854394	III_d
80	macrolactin|KS1|AJ634061|CAG23964|Pks2B|KS1|Acetyl	macrolactin	KS1	AJ634061	IV_d
81	corallopyronin|KS1|HM071004|ADI59533|CorK|KS1|acetyl	corallopyronin	KS1b	HM071004	IV_d
82	corallopyronin|KS7|HM071004|ADI59533|corK|KS1|acetyl	corallopyronin	KS7	HM071004	IV_d
83	disorazole|KS1|DQ013294|AAY32964|DszA|KS1|start	disorazole	KS1	DQ013294	IV_d
84	misakinolide|KS1|?|?|?|KS?|?	misakinolide	KS1	?	IV_d
85	tartrolon|KS1|CP001614|ACR13997|TrtD|KS1|?	tartrolon	KS1	CP001614	IV_e
86	thailanstatin|KS1|JX307851|AGN11880|TstC|KS1|?	thailanstatin	KS1	JX307851	IV_e
87	FR901464|KS1|HM047288|ADH01484|Fr9C|KS1|?	FR901464	KS1	HM047288	IV_e
88	bryostatin|KS1|DQ889941|ABM63537|BryA|KS1|dH	bryostatin	KS1	DQ889941	IV_e
89	phormidolide|KS1|ALVN01000014|EKU96424|?|KS1|?	phormidolide	KS1	ALVN01000014	IV_f
90	oocydin_Smar|KS1|JX315603|AFX60309|OocJ|KS1|?	oocydin_Smar	KS1	JX315603	IV_f
91	oocydin_Ddad|KS1|CP001654|ACS85223|OocJ|KS1|?	oocydin_Ddad	KS1	CP001654	IV_f
92	tartrolon|KS5|CP001614|ACR12418|TrtE|KS2|?	tartrolon	KS5	CP001614	III_h
93	difficidin|KS?|AJ634062|CAJ57410|DifJ|KS2|?	difficidin	KS?	AJ634062	III_h
94	thailandamide|KS8|NC_007650|YP_439861|BTH_II1667|KS2|0eDM	thailandamide	KS8	NC_007650	III_h
95	kalimantacin_batumin|KS7|GU479979|ADD82940|Bat2|KS6|0bimod	kalimantacin_batumin	KS7	GU479979	III_h
96	bongkrekic_acid|KS6|JX173632|AFN27480|BonA|KS6|?	bongkrekic_acid	KS6	JX173632	III_h
97	sorangicin|KS7|HM584908|ADN68476|SorA|KS7|0bimod	sorangicin	KS7	HM584908	III_h
98	sorangicin|KS22|HM584908|ADN68483|SorH|KS3|0bimod	sorangicin	KS22	HM584908	III_h
99	bacillaene_Bsub|KS3|AL009126|CAB13589|PksJ|KS3|?	bacillaene_Bsub	KS3	AL009126	III_h
100	bacillaene_Bamy|KS3|AJ634060|CAG23957|BaeJ|KS3|0Hbimod	bacillaene_Bamy	KS3	AJ634060	III_h
101	bacillaene_Bamy|KS7|AJ634060|CAG23958|BaeL|KS4|0Hbimod	bacillaene_Bamy	KS7	AJ634060	III_h
102	bacillaene_Bsub|KS7|AL009126|CAB13602|PksL|KS4|?	bacillaene_Bsub	KS7	AL009126	III_h
103	misakinolide|KS14|?|?|?|KS?|0lH	misakinolide	KS14	?	III_h
104	tolytoxin|KS14|?|?|?|KS?|?	tolytoxin	KS14	?	III_h
105	luminaolid|KS14|?|?|?|?|?	luminaolid	KS14	?	III_h
106	difficidin|KS5|AJ634062|CAG23978|DifG|KS2|0Hbimod	difficidin	KS5	AJ634062	III_h
107	oxazolomycin|KS4|EF552687|ABS90470|OzmH|KS4|0eD	oxazolomycin	KS4	EF552687	III_h
108	albicidin|KS1|AJ586576|CAE52339|AlbI|KS1|A	albicidin	KS1	AJ586576	IV_a
109	elansolid_Csan|KS1|HQ680975|AEC04356|ElaJ|KS1|?	elansolid_Csan	KS1	HQ680975	IV_a
110	elansolid_Cpin|KS1|CP001699|ACU62728|ElsI|KS1|A	elansolid_Cpin	KS1	CP001699	IV_a
111	bryostatin|KS?|DQ889941|ABM63529|BryX|KS1|GNAT	bryostatin	KS?	DQ889941	IV_b
112	basiliskamides|KS1|NZ_AXBT01000013|WP_022584875|P615_14890|KS1|?	basiliskamides	KS1	NZ_AXBT01000013	IV_b
113	kalimantacin_batumin|KS1|GU479979|ADD82939|Bat1|KS1|Ac	kalimantacin_batumin	KS1	GU479979	IV_b
114	psymberin|KS1|FJ823461|ADA82581|PsyA|KS1|GNAT	psymberin	KS1	FJ823461	IV_b
115	diaphorin|KS1|CP003468|AGS06823|DipP|KS1|?	diaphorin	KS1	CP003468	IV_b
116	pederin|KS1|AY426537|AAR19304|PedI|KS1|AcGNAT	pederin	KS1	AY426537	IV_b
117	nosperin|KS1|GQ979609|ADA69237|NspA|KS1|	nosperin	KS1	GQ979609	IV_b
118	onnamide|KS1|AY688304|AAV97870|OnnB|KS1|AcGNAT	onnamide	KS1	AY688304	IV_b
119	etnangien|KS1|NC_010162|YP_001613827|EtnD|KS1|Succ	etnangien	KS1	NC_010162	IV_b
120	9-methylstreptimidone|KS1|FR878059|CCC21123|SmdI|KS1|?	9-methylstreptimidone	KS1	FR878059	IV_b
121	cycloheximide|KS1|JX014302|AFO59866|ChxE|KS1|D	cycloheximide	KS1	JX014302	IV_b
122	sorangicin|KS1|HM584908|ADN68476|SorA|KS1|?	sorangicin	KS1	HM584908	IV_b
123	dorrigocin_migrastatin|KS1|GQ274953|ACY01390|MgsE|KS1|malonamyl?	dorrigocin_migrastatin	KS1	GQ274953	IV_b
124	virginiamycin|KS1|AB283030|BAF50727|VirA|KS1|	virginiamycin	KS1	AB283030	IV_c
125	griseoviridin|KS1|JX508597|AGN74892|SgvE1|KS1|?	griseoviridin	KS1	JX508597	IV_c
126	mupirocin|KS5|AF318063|AAM12913|MmpD|KS1|Ac	mupirocin	KS5	AF318063	IV_c
127	thailandamide|KS1|NC_007650|YP_439868|BTH_II1674|KS1|HPA	thailandamide	KS1	NC_007650	IV_c
128	bryostatin|KS8|DQ889941|ABM63528|BryC|KS1|exoesterB	bryostatin	KS8	DQ889941	XIII
129	bryostatin|KS4|DQ889941|ABM63527|BryB|KS1|exoesterB	bryostatin	KS4	DQ889941	XIII
130	etnangien|KS2|NC_010162|YP_001613827|EtnD|KS2|eDB	etnangien	KS2	NC_010162	XIII
131	myxovirescin|KS8|CP000113|ABF92489|TaO|KS1|RetB	myxovirescin	KS8	CP000113	XIII
132	kalimantacin_batumin|KS11|GU479979|ADD82941|Bat3|KS4|RB	kalimantacin_batumin	KS11	GU479979	XIII
133	kalimantacin_batumin|KS5|GU479979|ADD82940|Bat2|KS4|RB	kalimantacin_batumin	KS5	GU479979	XIII
134	kalimantacin_batumin|KS10|GU479979|ADD82941|Bat3|KS3|exometB	kalimantacin_batumin	KS10	GU479979	XIII
135	difficidin|KS1|AJ634062|CAG23977|DifF|KS1|acryloyl	difficidin	KS1	AJ634062	II_f
136	corallopyronin|KS2|HM071004|ADI59533|CorK|KS2|eD	corallopyronin	KS2b	HM071004	II_f
137	disorazole|KS2|DQ013294|AAY32964|DszA|KS2|ecrotonyl	disorazole	KS2	DQ013294	II_f
138	tartrolon|KS4|CP001614|ACR12418|TrtE|KS1|?	tartrolon	KS4	CP001614	II_f
139	elansolid_Cpin|KS12|CP001699|ACU62721|ElsP|KS2|H	elansolid_Cpin	KS12	CP001699	VI_f
140	elansolid_Csan|KS12|HQ680975|AEC04363|ElaQ|KS2|?	elansolid_Csan	KS12	HQ680975	VI_f
141	bryostatin|KS7|DQ889941|ABM63527|BryB|KS4|lH	bryostatin	KS7	DQ889941	VI_f
142	bryostatin|KS2|DQ889941|ABM63537|BryA|KS2|lH	bryostatin	KS2	DQ889941	VI_f
143	bryostatin|KS12|DQ889941|ABM63530|BryD|KS1|lH	bryostatin	KS12	DQ889941	VI_f
144	pederin|KS9|AY328023|AAS47564|PedF|KS6|lH	pederin	KS9	AY328023	VI_f
145	diaphorin|KS9|CP003468|AGS06887|DipT|KS6|?	diaphorin	KS9	CP003468	VI_f
146	luminaolid|KS9|?|?|?|?|?	luminaolid	KS9	?	VI_f
147	tolytoxin|KS9|?|?|?|KS?|?	tolytoxin	KS9	?	VI_f
148	misakinolide|KS9|?|?|?|KS?|lH	misakinolide	KS9	?	VI_f
149	onnamide|KS9|?|?|?|KS?|lH	onnamide	KS9	?	VI_f
150	phormidolide|KS11|ALVN01000014|EKU96420|?|KS3|?	phormidolide	KS11	ALVN01000014	VI_f
151	rhizoxins|KS13|AM411073|CAL69893|RhiE|KS2|lH	rhizoxins	KS13	AM411073	VI_f
152	kalimantacin_batumin|KS3|GU479979|ADD82940|Bat2|KS2|H	kalimantacin_batumin	KS3	GU479979	VI_f
153	sorangicin|KS14|HM584908|ADN68479|SorD|KS2|lH	sorangicin	KS14	HM584908	VI_f
154	sorangicin|KS5|HM584908|ADN68476|SorA|KS5|lH+alphalH	sorangicin	KS5	HM584908	VI_f
155	difficidin|KS8|AJ634062|CAJ57409|DifI|KS2|H	difficidin	KS8	AJ634062	VI_f
156	thailandamide|KS2|NC_007650|YP_439868|BTH_II1674|KS2|H	thailandamide	KS2	NC_007650	VI_f
157	oocydin_Ddad|KS7|CP001654|ACS85227|OocN|KS3|?	oocydin_Ddad	KS7	CP001654	VI_f
158	oocydin_Smar|KS7|JX315603|AFX60313|OocN|KS3|?	oocydin_Smar	KS7	JX315603	VI_f
159	bongkrekic_acid|KS4|JX173632|AFN27480|BonA|KS4|?	bongkrekic_acid	KS4	JX173632	VI_f
160	psymberin|KS9|FJ823461|ADA82585|PsyD|KS7|lH	psymberin	KS9	FJ823461	VI_f
161	luminaolid|KS5|?|?|?|?|?	luminaolid	KS5	?	noClade
162	tolytoxin|KS5|?|?|?|KS?|?	tolytoxin	KS5	?	noClade
163	chivosazole|KS9|DQ065771|AAY89050|ChiC|KS6|0dHdM	chivosazole	KS9	DQ065771	VI_d
164	misakinolide|KS3|?|?|?|KS?|0dH	misakinolide	KS3	?	VI_d
165	luminaolid|KS3|?|?|?|?|?	luminaolid	KS3	?	VI_d
166	tolytoxin|KS3|?|?|?|KS?|?	tolytoxin	KS3	?	VI_d
167	rhizopodin|KS3|FR854394|CCA89326|RizB|KS3|?	rhizopodin	KS3	FR854394	VI_d
168	rhizopodin|KS17|FR854394|CCA89329|RizE|KS1|?	rhizopodin	KS17	FR854394	VI_d
169	rhizopodin|KS13|FR854394|CCA89328|RizD|KS3|?	rhizopodin	KS13	FR854394	VI_d
170	rhizopodin|KS7|FR854394|CCA89326|RizB|KS7|?	rhizopodin	KS7	FR854394	VI_d
171	sorangicin|KS19|HM584908|ADN68482|SorG|KS2|lH	sorangicin	KS19	HM584908	VI_e
172	tolytoxin|KS12|?|?|?|KS?|?	tolytoxin	KS12	?	VI_e
173	misakinolide|KS12|?|?|?|KS?|dOMe	misakinolide	KS12	?	VI_e
174	luminaolid|KS12|?|?|?|?|?	luminaolid	KS12	?	VI_e
175	etnangien|KS13|NC_010162|YP_001613830|EtnG|KS3|lOMe	etnangien	KS13	NC_010162	VI_e
176	oxazolomycin|KS8|EF552687|ABS90472|OzmK|KS1|lOME	oxazolomycin	KS8	EF552687	VI_e
177	griseoviridin|KS6|JX508597|AGN74894|SgvE3|KS2|?	griseoviridin	KS6	JX508597	VI_b
178	virginiamycin|KS6|AB283030|BAF50721|VirG|KS1|dH	virginiamycin	KS6	AB283030	VI_b
179	tartrolon|KS9|CP001614|ACR13065|TrtF|KS1|?	tartrolon	KS9	CP001614	VI_b
180	griseoviridin|KS2|JX508597|AGN74892|SgvE1|KS2|?	griseoviridin	KS2	JX508597	VI_b
181	virginiamycin|KS2|AB283030|BAF50727|VirA|KS2|dHlM	virginiamycin	KS2	AB283030	VI_b
182	macrolactin|KS2|AJ634061|CAG23964|Pks2B|KS2|dH	macrolactin	KS2	AJ634061	VI_b
183	phormidolide|KS4|ALVN01000014|EKU96423|?|KS1|?	phormidolide	KS4	ALVN01000014	VI_c
184	myxovirescin|KS4|CP000113|ABF85931|Ta1|KS4|H	myxovirescin	KS4	CP000113	VI_c
185	mupirocin|KS2|AF318063|AAM12909|MmpA|KS2|dH	mupirocin	KS2	AF318063	VI_c
186	thailandamide|KS11|NC_007650|YP_439860|BTH_II1666|KS3|H	thailandamide	KS11	NC_007650	VI_c
187	phormidolide|KS5|ALVN01000014|EKU96423|?|KS2|?	phormidolide	KS5	ALVN01000014	VI_c
188	phormidolide|KS7|ALVN01000014|EKU96423|?|KS4|?	phormidolide	KS7	ALVN01000014	VI_c
189	myxovirescin|KS2|CP000113|ABF85931|Ta1|KS2|H	myxovirescin	KS2	CP000113	VI_c
190	rhizoxins|KS8|AM411073|CAL69890|RhiC|KS3|dH	rhizoxins	KS8	AM411073	VI_c
191	basiliskamides|KS4|NZ_AXBT01000013|WP_022584873|P615_14880|KS2|?	basiliskamides	KS4	NZ_AXBT01000013	VI_c
192	elansolid_Cpin|KS11|CP001699|ACU62721|ElsP|KS1|DM	elansolid_Cpin	KS11	CP001699	VI_c
193	elansolid_Csan|KS11|HQ680975|AEC04363|ElaQ|KS1|?	elansolid_Csan	KS11	HQ680975	VI_c
194	etnangien|KS18|NC_010162|YP_001613832|EtnI|KS2|dHlM	etnangien	KS18	NC_010162	VI_c
195	etnangien|KS19|NC_010162|YP_001613832|EtnI|KS3|dHlM	etnangien	KS19	NC_010162	VI_c
196	kalimantacin_batumin|KS4|GU479979|ADD82940|Bat2|KS3|H	kalimantacin_batumin	KS4	GU479979	VI_c
197	etnangien|KS9|NC_010162|YP_001613829|EtnF|KS2|dH	etnangien	KS9	NC_010162	VI_c
198	etnangien|KS3|NC_010162|YP_001613827|EtnD|KS3|dH	etnangien	KS3	NC_010162	VI_c
199	difficidin|KS4|AJ634062|CAG23978|DifG|KS1|H	difficidin	KS4	AJ634062	VI_c
200	diaphorin|KS2|CP003468|AGS06823|DipP|KS2|?	diaphorin	KS2	CP003468	VI_c
201	pederin|KS2|AY426537|AAR19304|PedI|KS2|dHlM	pederin	KS2	AY426537	VI_c
202	onnamide|KS2|AY688304|AAV97870|OnnB|KS2|dHlM	onnamide	KS2	AY688304	VI_c
203	nosperin|KS2|GQ979609|ADA69237|NspA|KS2|	nosperin	KS2	GQ979609	VI_c
204	bryostatin|KS13|DQ889941|ABM63530|BryD|KS2|0dH	bryostatin	KS13	DQ889941	VI_c
205	bryostatin|KS3|DQ889941|ABM63537|BryA|KS3|dH	bryostatin	KS3	DQ889941	VI_c
206	misakinolide|KS13|?|?|?|KS?|dH	misakinolide	KS13	?	VI_c
207	tolytoxin|KS13|?|?|?|KS?|?	tolytoxin	KS13	?	VI_c
208	luminaolid|KS13|?|?|?|?|?	luminaolid	KS13	?	VI_c
209	misakinolide|KS17|?|?|?|KS?|dH	misakinolide	KS17	?	VI_c
210	tolytoxin|KS17|?|?|?|KS?|?	tolytoxin	KS17	?	VI_c
211	luminaolid|KS17|?|?|?|?|?	luminaolid	KS17	?	VI_c
212	psymberin|KS5|FJ823461|ADA82585|PsyD|KS3|dH	psymberin	KS5	FJ823461	VI_c
213	onnamide|KS6|AY688304|AAV97877|OnnI|KS3|dH	onnamide	KS6	AY688304	VI_c
214	diaphorin|KS6|CP003468|AGS06887|DipT|KS3|?	diaphorin	KS6	CP003468	VI_c
215	pederin|KS6|AY328023|AAS47564|PedF|KS3|dH	pederin	KS6	AY328023	VI_c
216	thailanstatin|KS9|JX307851|AGN11882|TstGH|KS2|?	thailanstatin	KS9	JX307851	VI_c
217	dorrigocin_migrastatin|KS4|GQ274953|ACY01391|MgsF|KS1|betacyclic	dorrigocin_migrastatin	KS4	GQ274953	VI_c
218	cycloheximide|KS4|JX014302|AFO59866|ChxE|KS4|H	cycloheximide	KS4	JX014302	VI_c
219	9-methylstreptimidone|KS4|FR878059|CCC21123|SmdI|KS4|?	9-methylstreptimidone	KS4	FR878059	VI_c
220	chivosazole|KS8|DQ065771|AAY89050|ChiC|KS5|lH	chivosazole	KS8	DQ065771	VI_a
221	kirromycin|KS10|AM746336|CAN89634|KirAIV|KS4|lH	kirromycin	KS10	AM746336	VI_a
222	misakinolide|KS2|?|?|?|KS?|?	misakinolide	KS2	?	VI_a
223	macrolactin|KS6|AJ634061|CAG23966|Pks2D|KS2|lH	macrolactin	KS6	AJ634061	VI_a
224	legioliulin|KS3|NZ_CM001371|WP_010652552|LglD|KS3|?	legioliulin	KS3	NZ_CM001371	VI_a
225	oocydin_Smar|KS2|JX315603|AFX60309|OocJ|KS2|?	oocydin_Smar	KS2	JX315603	XII_b
226	oocydin_Ddad|KS2|CP001654|ACS85223|OocJ|KS2|?	oocydin_Ddad	KS2	CP001654	XII_b
227	onnamide|KS3|AY688304|AAV97870|OnnB|KS3|exometB	onnamide	KS3	AY688304	XII_b
228	nosperin|KS3|GQ979609|ADA69237|NspA|KS3|	nosperin	KS3	GQ979609	XII_b
229	pederin|KS3|AY426537|AAR19304|PedI|KS3|exometB	pederin	KS3	AY426537	XII_b
230	diaphorin|KS3|CP003468|AGS06823|DipP|KS3|?	diaphorin	KS3	CP003468	XII_b
231	phormidolide|KS13|ALVN01000014|EKU96419|?|KS1|?	phormidolide	KS13	ALVN01000014	XII_b
232	phormidolide|KS2|ALVN01000014|EKU96424|?|KS2|?	phormidolide	KS2	ALVN01000014	XII_b
233	psymberin|KS2|FJ823461|ADA82581|PsyA|KS2|exometB	psymberin	KS2	FJ823461	XII_b
234	FR901464|KS9|HM047288|ADH01489|Fr9H|KS2|?	FR901464	KS9	HM047288	XII_a
235	thailanstatin|KS10|JX307851|AGN11882|TstGH|KS3|?	thailanstatin	KS10	JX307851	XII_a
236	macrolactin|KS11|AJ634061|CAG23969|Pks2G|KS2|H_D	macrolactin	KS11	AJ634061	XVIII
237	macrolactin|KS8|AJ634061|CAG23967|Pks2E|KS2|H_D	macrolactin	KS8	AJ634061	XVIII
238	chivosazole|KS16|DQ065771|AAY89053|ChiF|KS2|H_D	chivosazole	KS16	DQ065771	XVIII
239	chivosazole|KS12|DQ065771|AAY89051|ChiD|KS3|H_D	chivosazole	KS12	DQ065771	XVIII
240	chivosazole|KS5|DQ065771|AAY89050|ChiC|KS2|H_D	chivosazole	KS5	DQ065771	XVIII
241	leinamycin|KS3|AF484556|AAN85522|LnmI|KS3|zD	leinamycin	KS3	AF484556	XVIII
242	tartrolon|KS3|CP001614|ACR13997|TrtD|KS3|?	tartrolon	KS3	CP001614	XVIII
243	kirromycin|KS2|AM746336|CAN89631|KirAI|KS2|zcrotonyl	kirromycin	KS2	AM746336	XVIII
244	luminaolid|KS1|?|?|?|?|?	luminaolid	KS1	?	I_b
245	tolytoxin|KS1|?|?|?|KS?|?	tolytoxin	KS1	?	I_b
246	rhizopodin|KS1|FR854394|CCA89326|RizB|KS1|?	rhizopodin	KS1	FR854394	I_b
247	corallopyronin|KS2|HM071004|ADI59531|CorI|KS2|AGly	corallopyronin	KS2	HM071004	I_b
248	oxazolomycin|KS2|EF552687|ABS90470|OzmH|KS2|K	oxazolomycin	KS2	EF552687	I_b
249	thailandamide|KS5|NC_007650|YP_439867|BTH_II1673|KS1|Aala	thailandamide	KS5	NC_007650	I_a
250	seudotrienic_acid|KS4|AKJU01000004|EJM18770|?|KS1|?	seudotrienic_acid	KS4	AKJU01000004	I_a
251	myxovirescin|KS1|CP000113|ABF85931|Ta1|KS1|Agly	myxovirescin	KS1	CP000113	I_a
252	thailanstatin|KS4|JX307851|AGN11881|TstDEF|KS1|?	thailanstatin	KS4	JX307851	I_a
253	FR901464|KS4|HM047288|ADH01485|Fr9D|KS1|?	FR901464	KS4	HM047288	I_a
254	nosperin|KS5|GQ979609|ADA69239|NspC|KS2|	nosperin	KS5	GQ979609	I_a
255	psymberin|KS4|FJ823461|ADA82585|PsyD|KS2|Agly	psymberin	KS4	FJ823461	I_a
256	onnamide|KS5|AY688304|AAV97877|OnnI|KS2|Agly	onnamide	KS5	AY688304	I_a
257	pederin|KS5|AY328023|AAS47564|PedF|KS2|Agly	pederin	KS5	AY328023	I_a
258	diaphorin|KS5|CP003468|AGS06887|DipT|KS2|?	diaphorin	KS5	CP003468	I_a
259	kalimantacin_batumin|KS2|GU479979|ADD82940|Bat2|KS1|AGly	kalimantacin_batumin	KS2	GU479979	I_a
260	bacillaene_Bamy|KS1|AJ634060|CAG23957|BaeJ|KS1|Agly	bacillaene_Bamy	KS1	AJ634060	I_a
261	bacillaene_Bsub|KS1|AL009126|CAB13589|PksJ|KS1|?	bacillaene_Bsub	KS1	AL009126	I_a
262	bacillaene_Bsub|KS11|AL009126|CAB13604|PksN|KS1|?	bacillaene_Bsub	KS11	AL009126	I_a
263	bacillaene_Bamy|KS10|AJ634060|CAG23960|BaeN|KS1|Aala	bacillaene_Bamy	KS10	AJ634060	I_a
264	oxazolomycin|KS12|EF552687|ABS90478|OzmQ|KS1|Agly	oxazolomycin	KS12	EF552687	I_a
265	oxazolomycin|KS9|EF552687|ABS90475|OzmN|KS1|Aser	oxazolomycin	KS9	EF552687	I_a
266	mupirocin|?|AF318063|AAM12934|MmpF|KS1|?	mupirocin	?	AF318063	I_a
267	malleilactone_burkholderic_acid|KS1|NC_007650|YP_440276|BurA|KS1|?	malleilactone_burkholderic_acid	KS1b	NC_007650	I_a
268	virginiamycin|KS3|AB283030|BAF50727|VirA|KS3|Agly	virginiamycin	KS3	AB283030	I_a
269	griseoviridin|KS3|JX508597|AGN74893|SgvE2|KS1|?	griseoviridin	KS3	JX508597	I_a
270	legioliulin|KS2|NZ_CM001371|WP_010652552|LglD|KS2|?	legioliulin	KS2	NZ_CM001371	II_c5_g1
271	macrolactin|KS9|AJ634061|CAG23968|Pks2F|KS1|zD	macrolactin	KS9	AJ634061	II_c5_g1
272	macrolactin|KS4|AJ634061|CAG23965|Pks2C|KS1|eD	macrolactin	KS4	AJ634061	II_c5_g1
273	luminaolid|KS5|?|?|?|?|?	luminaolid	KS5	?	II_c5_g1
274	tolytoxin|KS5|?|?|?|KS?|?	tolytoxin	KS5	?	II_c5_g1
275	macrolactin|KS5|AJ634061|CAG23966|Pks2D|KS1|eD	macrolactin	KS5	AJ634061	II_c5_g1
276	macrolactin|KS7|AJ634061|CAG23967|Pks2E|KS1|dH	macrolactin	KS7	AJ634061	II_c5_g1
277	macrolactin|KS10|AJ634061|CAG23969|Pks2G|KS1|dH	macrolactin	KS10	AJ634061	II_c5_g1
278	elansolid_Csan|KS8|HQ680975|AEC04362|ElaP|KS1|?	elansolid_Csan	KS8	HQ680975	II_c5_g1
279	elansolid_Cpin|KS8|CP001699|ACU62722|ElsO|KS1|D	elansolid_Cpin	KS8	CP001699	II_c5_g1
280	difficidin|KS11|AJ634062|CAJ57410|DifJ|KS1|zD	difficidin	KS11	AJ634062	II_c5_g1
281	chivosazole|KS17|DQ065771|AAY89053|ChiF|KS3|eD	chivosazole	KS17	DQ065771	II_c5_g2
282	chivosazole|KS6|DQ065771|AAY89050|ChiC|KS3|eD	chivosazole	KS6	DQ065771	II_c5_g2
283	chivosazole|KS13|DQ065771|AAY89052|ChiE|KS1|zD	chivosazole	KS13	DQ065771	II_c5_g2
284	disorazole|KS7|DQ013294|AAY32965|DszB|KS3|eD	disorazole	KS7	DQ013294	II_c5_g2
285	kirromycin|KS8|AM746336|CAN89634|KirAIV|KS2|eDM	kirromycin	KS8	AM746336	II_c5_g2
286	kirromycin|KS7|AM746336|CAN89634|KirAIV|KS1|eD	kirromycin	KS7	AM746336	II_c5_g2
287	oxazolomycin|KS10|EF552687|ABS90475|OzmN|KS2|eD	oxazolomycin	KS10	EF552687	II_c5_g2
288	lankacidin|KS3|NC_004808|NP_851435|LkcF|KS1|eD	lankacidin	KS3	NC_004808	II_c5_g2
289	kirromycin|KS12|AM746336|CAN89635|KirAV|KS1|eD	kirromycin	KS12	AM746336	II_c5_g2
290	kirromycin|KS3|AM746336|CAN89632|KirAII|KS1|eD	kirromycin	KS3	AM746336	II_c5_g2
291	griseoviridin|KS4|JX508597|AGN74893|SgvE2|KS2|?	griseoviridin	KS4	JX508597	II_c5_g2
292	virginiamycin|KS4|AB283030|BAF50727|VirA|KS4|eD	virginiamycin	KS4	AB283030	II_c5_g2
293	leinamycin|KS4|AF484556|AAN85523|LnmJ|KS1|eD	leinamycin	KS4	AF484556	II_c5_g2
294	oxazolomycin|KS3|EF552687|ABS90470|OzmH|KS3|eD	oxazolomycin	KS3	EF552687	II_c5_g2
295	rhizopodin|KS16|FR854394|CCA89328|RizD|KS6|?	rhizopodin	KS16	FR854394	II_c5_g2
296	rhizoxins|KS14|AM411073|CAL69893|RhiE|KS3|D	rhizoxins	KS14	AM411073	II_c4
297	dorrigocin_migrastatin|KS2|GQ274953|ACY01390|MgsE|KS2|D	dorrigocin_migrastatin	KS2	GQ274953	II_c4
298	9-methylstreptimidone|KS2|FR878059|CCC21123|SmdI|KS2|?	9-methylstreptimidone	KS2	FR878059	II_c4
299	cycloheximide|KS2|JX014302|AFO59866|ChxE|KS2|D	cycloheximide	KS2	JX014302	II_c4
300	oxazolomycin|KS5|EF552687|ABS90470|OzmH|KS5|eD	oxazolomycin	KS5	EF552687	II_c1
301	thailandamide|KS9|NC_007650|YP_439860|BTH_II1666|KS1|eD	thailandamide	KS9	NC_007650	II_c1
302	kalimantacin_batumin|KS8|GU479979|ADD82941|Bat3|KS1|zD	kalimantacin_batumin	KS8	GU479979	II_c1
303	difficidin|KS6|AJ634062|CAJ57408|DifH|KS1|zD	difficidin	KS6	AJ634062	II_c1
304	bacillaene_Bsub|KS8|AL009126|CAB13603|PksM|KS1|?	bacillaene_Bsub	KS8	AL009126	II_c1
305	bacillaene_Bamy|KS8|AJ634060|CAG23959|BaeM|KS1|zD	bacillaene_Bamy	KS8	AJ634060	II_c1
306	bacillaene_Bsub|KS4|AL009126|CAB13602|PksL|KS1|?	bacillaene_Bsub	KS4	AL009126	II_c1
307	bacillaene_Bamy|KS4|AJ634060|CAG23958|BaeL|KS1|zD	bacillaene_Bamy	KS4	AJ634060	II_c1
308	oocydin_Ddad|KS14|CP001654|ACS85232|OocS|KS2|?	oocydin_Ddad	KS14	CP001654	II_c1
309	oocydin_Smar|KS14|JX315603|AFX60318|OocS|KS2|?	oocydin_Smar	KS14	JX315603	II_c1
310	tolytoxin|KS15|?|?|?|KS?|?	tolytoxin	KS15	?	II_c1
311	luminaolid|KS15|?|?|?|?|?	luminaolid	KS15	?	II_c1
312	misakinolide|KS15|?|?|?|KS?|zD	misakinolide	KS15	?	II_c1
313	etnangien|KS16|NC_010162|YP_001613831|EtnH|KS2|eD	etnangien	KS16	NC_010162	II_c3
314	thailanstatin|KS8|JX307851|AGN11882|TstGH|KS1|?	thailanstatin	KS8	JX307851	II_c3
315	FR901464|KS8|HM047288|ADH01488|Fr9G|KS1|?	FR901464	KS8	HM047288	II_c3
316	onnamide|KS12|AZHW01000002|ETX03789|?|KS2|eD	onnamide	KS12	AZHW01000002	II_c3
317	pederin|KS12|AY328023|AAS47562|PedH|KS3|D	pederin	KS12	AY328023	II_c3
318	phormidolide|KS14|ALVN01000014|EKU96419|?|KS2|?	phormidolide	KS14	ALVN01000014	II_c3
319	bryostatin|KS?|DQ889941|ABM63529|BryX|KS2|0	bryostatin	KS?	DQ889941	II_c3
320	bryostatin|KS6|DQ889941|ABM63527|BryB|KS3|eD	bryostatin	KS6	DQ889941	II_c3
321	rhizoxins|KS5|AM411073|CAL69889|RhiB|KS4|eD	rhizoxins	KS5	AM411073	II_c3
322	difficidin|KS13|AJ634062|CAJ57411|DifK|KS1|eD	difficidin	KS13	AJ634062	II_c3
323	thailandamide|KS3|NC_007650|YP_439868|BTH_II1674|KS3|eD	thailandamide	KS3	NC_007650	II_c3
324	mupirocin|KS7|AF318063|AAM12913|MmpD|KS3|eD	mupirocin	KS7	AF318063	II_c3
325	dorrigocin_migrastatin|KS6|GQ274953|ACY01391|MgsF|KS3|KdM	dorrigocin_migrastatin	KS6	GQ274953	II_c3
326	thailandamide|KS14|NC_007650|YP_439859|BTH_II1665|KS2|eD	thailandamide	KS14	NC_007650	II_c3
327	myxovirescin|KS7|CP000113|ABF85931|Ta1|KS7|eD	myxovirescin	KS7	CP000113	II_c3
328	thailandamide|KS12|NC_007650|YP_439860|BTH_II1666|KS4|eD	thailandamide	KS12	NC_007650	II_c3
329	mupirocin|KS4|AF318063|AAM12911|MmpB|KS1|	mupirocin	KS4	AF318063	II_c3
330	mupirocin|KS3|AF318063|AAM12909|MmpA|KS3|dH	mupirocin	KS3	AF318063	II_c3
331	seudotrienic_acid|KS1|AKJU01000004|EJM18771|?|KS1|?	seudotrienic_acid	KS1	AKJU01000004	II_c3
332	thailandamide|KS6|NC_007650|YP_439867|BTH_II1673|KS2|eD	thailandamide	KS6	NC_007650	II_c3
333	bongkrekic_acid|KS5|JX173632|AFN27480|BonA|KS5|?	bongkrekic_acid	KS5	JX173632	II_c3
334	bongkrekic_acid|KS9|JX173632|AFN27482|BonC|KS1|?	bongkrekic_acid	KS9	JX173632	II_c3
335	bongkrekic_acid|KS7|JX173632|AFN27481|BonB|KS1|?	bongkrekic_acid	KS7	JX173632	II_c3
336	bongkrekic_acid|KS11|JX173632|AFN27483|BonD|KS2|?	bongkrekic_acid	KS11	JX173632	II_c3
337	sorangicin|KS10|HM584908|ADN68477|SorB|KS3|eD	sorangicin	KS10	HM584908	II_c3
338	sorangicin|KS21|HM584908|ADN68483|SorH|KS2|eD	sorangicin	KS21	HM584908	II_c3
339	sorangicin|KS17|HM584908|ADN68480|SorE|KS3|eD	sorangicin	KS17	HM584908	II_c3
340	kalimantacin_batumin|KS6|GU479979|ADD82940|Bat2|KS5|eD	kalimantacin_batumin	KS6	GU479979	II_c3
341	sorangicin|KS23|HM584908|ADN68484|SorI|KS1|zD	sorangicin	KS23	HM584908	II_c3
342	etnangien|KS4|NC_010162|YP_001613827|EtnD|KS4|eD	etnangien	KS4	NC_010162	II_c3
343	etnangien|KS6|NC_010162|YP_001613828|EtnE|KS2|eD	etnangien	KS6	NC_010162	II_c3
344	etnangien|KS5|NC_010162|YP_001613828|EtnE|KS1|eD	etnangien	KS5	NC_010162	II_c3
345	seudotrienic_acid|KS7|AKJU01000004|EJM18769|?|KS1|?	seudotrienic_acid	KS7	AKJU01000004	II_c3
346	elansolid_Cpin|KS10|CP001699|ACU62722|ElsO|KS3|?	elansolid_Cpin	KS10	CP001699	II_c3
347	elansolid_Csan|KS10|HQ680975|AEC04362|ElaP|KS3|?	elansolid_Csan	KS10	HQ680975	II_c3
348	elansolid_Cpin|KS5|CP001699|ACU62727|ElsJ|KS3|D	elansolid_Cpin	KS5	CP001699	II_c3
349	elansolid_Csan|KS5|HQ680975|AEC04357|ElaK|KS3|?	elansolid_Csan	KS5	HQ680975	II_c3
350	bacillaene_Bsub|KS5|AL009126|CAB13602|PksL|KS2|?	bacillaene_Bsub	KS5	AL009126	II_c3
351	bacillaene_Bamy|KS5|AJ634060|CAG23958|BaeL|KS2|eD	bacillaene_Bamy	KS5	AJ634060	II_c3
352	rhizoxins|KS3|AM411073|CAL69889|RhiB|KS2|OXZ	rhizoxins	KS3	AM411073	II_c2
353	leinamycin|KS2|AF484556|AAN85522|LnmI|KS2|OXZ	leinamycin	KS2	AF484556	II_c2
354	chivosazole|KS11|DQ065771|AAY89051|ChiD|KS2|OXZ	chivosazole	KS11	DQ065771	II_c2
355	rhizopodin|KS12|FR854394|CCA89328|RizD|KS2|?	rhizopodin	KS12	FR854394	II_c2
356	psymberin|KS7|FJ823461|ADA82585|PsyD|KS5|PY	psymberin	KS7	FJ823461	IX
357	thailanstatin|KS6|JX307851|AGN11881|TstDEF|KS3|?	thailanstatin	KS6	JX307851	IX
358	FR901464|KS6|HM047288|ADH01487|Fr9F|KS2|?	FR901464	KS6	HM047288	IX
359	bryostatin|KS9|DQ889941|ABM63528|BryC|KS2|PY	bryostatin	KS9	DQ889941	IX
360	oocydin_Smar|KS8|JX315603|AFX60313|OocN|KS4|?	oocydin_Smar	KS8	JX315603	IX
361	oocydin_Ddad|KS8|CP001654|ACS85227|OocN|KS4|?	oocydin_Ddad	KS8	CP001654	IX
362	sorangicin|KS20|HM584908|ADN68483|SorH|KS1|lPY	sorangicin	KS20	HM584908	IX
363	sorangicin|KS9|HM584908|ADN68477|SorB|KS2|lPY	sorangicin	KS9	HM584908	IX
364	sorangicin|KS16|HM584908|ADN68480|SorE|KS2|lPY	sorangicin	KS16	HM584908	IX
365	phormidolide|KS12|ALVN01000014|EKU96420|?|KS4|?	phormidolide	KS12	ALVN01000014	IX
366	misakinolide|KS16|?|?|?|KS?|PY	misakinolide	KS16	?	IX
367	luminaolid|KS16|?|?|?|?|?	luminaolid	KS16	?	IX
368	tolytoxin|KS16|?|?|?|KS?|?	tolytoxin	KS16	?	IX
369	onnamide|KS8|?|?|?|KS?|PY	onnamide	KS8	?	IX
370	pederin|KS8|AY328023|AAS47564|PedF|KS5|PY	pederin	KS8	AY328023	IX
371	diaphorin|KS8|CP003468|AGS06887|DipT|KS5|?	diaphorin	KS8	CP003468	IX
372	legioliulin|KS5|NZ_CM001371|WP_010652551|LglE|KS1|?	legioliulin	KS5	NZ_CM001371	out_group_like
373	bongkrekic_acid|KS1|JX173632|AFN27480|BonA|KS1|?	bongkrekic_acid	KS1	JX173632	out_group_like
374	enacyloxin|KS4|CP000442|ABI91468|Bamb_5923|KS1|?	enacyloxin	KS4	CP000442	out_group_like
375	enacyloxin|KS9|CP000442|ABI91465|Bamb_5920|KS2|?	enacyloxin	KS9	CP000442	out_group_like
376	2hg4_chainA_EryKS5_OUTGROUP	2hg4_chainA_EryKS5_OUTGROUP	outgroup	outgroup	out_group_like
377	2qo3_chainA_EryKS3_OUTGROUP	2qo3_chainA_EryKS3_OUTGROUP	outgroup	outgroup	out_group_like
378	psymberin|KS11|FJ823461|ADA82585|PsyD|KS9|K	psymberin	KS11	FJ823461	out_group_like
379	enacyloxin|KS10|CP000442|ABI91464|Bamb_5919|KS1|?	enacyloxin	KS10	CP000442	out_group_like
380	enacyloxin|KS8|CP000442|ABI91465|Bamb_5920|KS1|?	enacyloxin	KS8	CP000442	out_group_like
381	enacyloxin|KS5|CP000442|ABI91467|Bamb_5922|KS1|?	enacyloxin	KS5	CP000442	out_group_like
382	enacyloxin|KS2|CP000442|ABI91469|Bamb_5924|KS1|?	enacyloxin	KS2	CP000442	out_group_like
383	enacyloxin|KS3|CP000442|ABI91469|Bamb_5924|KS2|?	enacyloxin	KS3	CP000442	out_group_like
384	enacyloxin|KS7|CP000442|ABI91466|Bamb_5921|KS2|?	enacyloxin	KS7	CP000442	out_group_like
385	phormidolide|KS10|ALVN01000014|EKU96420|?|KS2|?	phormidolide	KS10	ALVN01000014	XVI
386	oocydin_Ddad|KS6|CP001654|ACS85227|OocN|KS2|?	oocydin_Ddad	KS6	CP001654	XVI
387	oocydin_Smar|KS6|JX315603|AFX60313|OocN|KS2|?	oocydin_Smar	KS6	JX315603	XVI
388	misakinolide|KS4|?|?|?|KS?|dOMe	misakinolide	KS4	?	XIV
389	tolytoxin|KS4|?|?|?|KS?|?	tolytoxin	KS4	?	XIV
390	luminaolid|KS4|?|?|?|?|?	luminaolid	KS4	?	XIV
391	rhizopodin|KS4|FR854394|CCA89326|RizB|KS4|?	rhizopodin	KS4	FR854394	XIV
392	rhizopodin|KS8|FR854394|CCA89326|RizB|KS8|?	rhizopodin	KS8	FR854394	XIV
393	rhizopodin|KS18|FR854394|CCA89329|RizE|KS2|?	rhizopodin	KS18	FR854394	XIV
394	rhizopodin|KS14|FR854394|CCA89328|RizD|KS4|?	rhizopodin	KS14	FR854394	XIV
395	corallopyronin|KS6|HM071004|ADI59534|CorL|KS3|?	corallopyronin	KS6b	HM071004	XIV
396	virginiamycin|KS5|AB283030|BAF50722|VirF|KS1|?	virginiamycin	KS5	AB283030	XIV
397	griseoviridin|KS5|JX508597|AGN74894|SgvE3|KS1|?	griseoviridin	KS5	JX508597	XIV
398	dorrigocin_migrastatin|KS3|GQ274953|ACY01390|MgsE|KS3|D?	dorrigocin_migrastatin	KS3	GQ274953	V
399	9-methylstreptimidone|KS3|FR878059|CCC21123|SmdI|KS3|?	9-methylstreptimidone	KS3	FR878059	V
400	cycloheximide|KS3|JX014302|AFO59866|ChxE|KS3|mchB	cycloheximide	KS3	JX014302	V
401	rhizoxins|KS15|AM411073|CAL69894|RhiF|KS1|mchB	rhizoxins	KS15	AM411073	V
402	myxovirescin|KS6|CP000113|ABF85931|Ta1|KS6|eDB	myxovirescin	KS6	CP000113	II_g
403	thailandamide|KS7|NC_007650|YP_439861|BTH_II1667|KS1|eDB	thailandamide	KS7	NC_007650	II_g
404	bongkrekic_acid|KS2|JX173632|AFN27480|BonA|KS2|?	bongkrekic_acid	KS2	JX173632	II_g
405	sorangicin|KS6|HM584908|ADN68476|SorA|KS6|zD	sorangicin	KS6	HM584908	II_g
406	elansolid_Csan|KS6|HQ680975|AEC04361|ElaO|KS1|?	elansolid_Csan	KS6	HQ680975	II_g
407	elansolid_Cpin|KS6|CP001699|ACU62723|ElsN|KS1|B	elansolid_Cpin	KS6	CP001699	II_g
408	bacillaene_Bamy|KS6|AJ634060|CAG23958|BaeL|KS3|eDB	bacillaene_Bamy	KS6	AJ634060	II_g
409	bacillaene_Bsub|KS6|AL009126|CAB13602|PksL|KS3|?	bacillaene_Bsub	KS6	AL009126	II_g
410	phormidolide|KS8|ALVN01000014|EKU96423|?|KS5|?	phormidolide	KS8	ALVN01000014	II_g
411	oocydin_Ddad|KS4|CP001654|ACS85225|OocL|KS2|?	oocydin_Ddad	KS4	CP001654	II_g
412	oocydin_Smar|KS4|JX315603|AFX60311|OocL|KS2|?	oocydin_Smar	KS4	JX315603	II_g
413	thailandamide|KS13|NC_007650|YP_439859|BTH_II1665|KS1|eDB	thailandamide	KS13	NC_007650	II_g
414	etnangien|KS7|NC_010162|YP_001613828|EtnE|KS3|eDB	etnangien	KS7	NC_010162	II_g
415	legioliulin|KS4|NZ_CM001371|WP_010652552|LglD|KS4|?	legioliulin	KS4	NZ_CM001371	X
416	psymberin|KS10|FJ823461|ADA82585|PsyD|KS8|KM	psymberin	KS10	FJ823461	X
417	thailandamide|KS10|NC_007650|YP_439860|BTH_II1666|KS2|eD	thailandamide	KS10	NC_007650	X
418	disorazole|KS6|DQ013294|AAY32965|DszB|KS2|zD	disorazole	KS6	DQ013294	II_e
419	oxazolomycin|KS11|EF552687|ABS90475|OzmN|KS3|zD	oxazolomycin	KS11	EF552687	II_e
420	disorazole|KS5|DQ013294|AAY32965|DszB|KS1|zD	disorazole	KS5	DQ013294	II_e
421	malleilactone_burkholderic_acid|KS2|NC_007650|YP_440281|BurF|KS2|?	malleilactone_burkholderic_acid	KS2	NC_007650	II_d
422	thailandamide|KS15|NC_007650|YP_439859|BTH_II1665|KS3|eDM	thailandamide	KS15	NC_007650	II_d
423	elansolid_Cpin|KS2|CP001699|ACU62728|ElsI|KS2|D	elansolid_Cpin	KS2	CP001699	II_d
424	elansolid_Csan|KS2|HQ680975|AEC04356|ElaJ|KS2|?	elansolid_Csan	KS2	HQ680975	II_d
425	seudotrienic_acid|KS2|AKJU01000004|EJM18771|?|KS2|?	seudotrienic_acid	KS2	AKJU01000004	II_d
426	seudotrienic_acid|KS8|AKJU01000004|EJM18769|?|KS2|?	seudotrienic_acid	KS8	AKJU01000004	II_d
427	elansolid_Cpin|KS13|CP001699|ACU62721|ElsP|KS3|DM	elansolid_Cpin	KS13	CP001699	II_d
428	elansolid_Csan|KS13|HQ680975|AEC04363|ElaQ|KS3|?	elansolid_Csan	KS13	HQ680975	II_d
429	difficidin|KS2|AJ634062|CAG23977|DifF|KS2|eDM	difficidin	KS2	AJ634062	II_d
430	rhizoxins|KS4|AM411073|CAL69889|RhiB|KS3|eDM	rhizoxins	KS4	AM411073	II_d
431	misakinolide|KS18|?|?|?|KS?|eDM	misakinolide	KS18	?	II_d
432	tolytoxin|KS18|?|?|?|KS?|?	tolytoxin	KS18	?	II_d
433	bacillaene_Bsub|KS9|AL009126|CAB13603|PksM|KS2|?	bacillaene_Bsub	KS9	AL009126	II_d
434	bacillaene_Bamy|KS9|AJ634060|CAG23959|BaeM|KS2|zDM	bacillaene_Bamy	KS9	AJ634060	II_d
435	difficidin|KS7|AJ634062|CAJ57409|DifI|KS1|zDM	difficidin	KS7	AJ634062	II_d
436	sorangicin|KS4|HM584908|ADN68476|SorA|KS4|eDM	sorangicin	KS4	HM584908	II_d
437	sorangicin|KS12|HM584908|ADN68478|SorC|KS1|eD	sorangicin	KS12	HM584908	II_d
438	FR901464|KS7|HM047288|ADH01487|Fr9F|KS3|?	FR901464	KS7	HM047288	II_d
439	thailanstatin|KS7|JX307851|AGN11881|TstDEF|KS4|?	thailanstatin	KS7	JX307851	II_d
440	albicidin|KS2|AJ586576|CAE52339|AlbI|KS2|HM	albicidin	KS2	AJ586576	II_d
441	rhizoxins|KS6|AM411073|CAL69890|RhiC|KS1|eDM	rhizoxins	KS6	AM411073	II_d
442	lankacidin|KS2|NC_004808|NP_851438|LkcC|KS1|eDM	lankacidin	KS2	NC_004808	II_d
443	corallopyronin|KS5|HM071004|ADI59532|CorJ|KS2|0RM	corallopyronin	KS5	HM071004	II_d
444	chivosazole|KS15|DQ065771|AAY89053|ChiF|KS1|eDM	chivosazole	KS15	DQ065771	II_d
445	oxazolomycin|KS1|EF552687|ABS90470|OzmH|KS1|zDM	oxazolomycin	KS1	EF552687	II_d
446	chivosazole|KS7|DQ065771|AAY89050|ChiC|KS4|eD	chivosazole	KS7	DQ065771	II_d
447	leinamycin|KS6|AF484556|AAN85523|LnmJ|KS3|eDM	leinamycin	KS6	AF484556	II_d
448	corallopyronin|KS7|HM071004|ADI59534|CorL|KS4|?	corallopyronin	KS7b	HM071004	II_d
449	tolytoxin|KS7|?|?|?|KS?|?	tolytoxin	KS7	?	XV
450	luminaolid|KS7|?|?|?|?|?	luminaolid	KS7	?	XV
451	misakinolide|KS7|?|?|?|KS?|lHlM	misakinolide	KS7	?	XV
452	rhizoxins|KS7|AM411073|CAL69890|RhiC|KS2|lHdM	rhizoxins	KS7	AM411073	XV
453	psymberin|KS6|FJ823461|ADA82585|PsyD|KS4|dHdiM	psymberin	KS6	FJ823461	XV
454	phormidolide|KS6|ALVN01000014|EKU96423|?|KS3|?	phormidolide	KS6	ALVN01000014	XV
455	pederin|KS7|AY328023|AAS47564|PedF|KS4|dHdiM	pederin	KS7	AY328023	XV
456	diaphorin|KS7|CP003468|AGS06887|DipT|KS4|?	diaphorin	KS7	CP003468	XV
457	onnamide|KS7|?|?|?|KS?|dHdiM	onnamide	KS7	?	XV
458	oocydin_Ddad|KS13|CP001654|ACS85232|OocS|KS1|?	oocydin_Ddad	KS13	CP001654	XV
459	oocydin_Smar|KS13|JX315603|AFX60318|OocS|KS1|?	oocydin_Smar	KS13	JX315603	XV
460	oxazolomycin|KS6|EF552687|ABS90471|OzmJ|KS1|lHlM	oxazolomycin	KS6	EF552687	XV
461	misakinolide|KS10|?|?|?|KS?|lMlH	misakinolide	KS10	?	XV
462	luminaolid|KS10|?|?|?|?|?	luminaolid	KS10	?	XV
463	tolytoxin|KS10|?|?|?|KS?|?	tolytoxin	KS10	?	XV
464	psymberin|KS8|FJ823461|ADA82585|PsyD|KS6|lHdM	psymberin	KS8	FJ823461	XV
465	rhizoxins|KS9|AM411073|CAL69891|RhiD|KS1|dHM	rhizoxins	KS9	AM411073	XV
466	tolytoxin|KS2|?|?|?|KS?|?	tolytoxin	KS2	?	II_b
467	luminaolid|KS2|?|?|?|?|?	luminaolid	KS2	?	II_b
468	rhizoxins|KS12|AM411073|CAL69893|RhiE|KS1|shDdB	rhizoxins	KS12	AM411073	II_a
469	nosperin|KS7|GQ979609|ADA69239|NspC|KS4|	nosperin	KS7	GQ979609	II_a
470	onnamide|KS11|AZHW01000002|ETX03789|?|KS1|eD	onnamide	KS11	AZHW01000002	II_a
471	pederin|KS10|AY328023|AAS47562|PedH|KS1|?	pederin	KS10	AY328023	VII
472	diaphorin|KS10|CP003468|AGS06824|DipO|KS1|?	diaphorin	KS10	CP003468	VII
473	oocydin_Smar|KS3|JX315603|AFX60311|OocL|KS1|?	oocydin_Smar	KS3	JX315603	VII
474	oocydin_Ddad|KS3|CP001654|ACS85225|OocL|KS1|?	oocydin_Ddad	KS3	CP001654	VII
475	luminaolid|KS8|?|?|?|?|?	luminaolid	KS8	?	XI_a
476	tolytoxin|KS8|?|?|?|KS?|?	tolytoxin	KS8	?	XI_a
477	misakinolide|KS8|?|?|?|KS?|lH	misakinolide	KS8	?	XI_a
478	chivosazole|KS4|DQ065771|AAY89050|ChiC|KS1|dHdM	chivosazole	KS4	DQ065771	XI_a
479	disorazole|KS3|DQ013294|AAY32964|DszA|KS3|lHdiM	disorazole	KS3	DQ013294	XI_a
480	chivosazole|KS14|DQ065771|AAY89052|ChiE|KS2|lHlM	chivosazole	KS14	DQ065771	XI_b
481	difficidin|KS14|AJ634062|CAG23983|DifL|KS1|RM	difficidin	KS14	AJ634062	XI_b
482	sorangicin|KS15|HM584908|ADN68480|SorE|KS1|lHdM	sorangicin	KS15	HM584908	XI_b
483	bryostatin|KS5|DQ889941|ABM63527|BryB|KS2|KdiM	bryostatin	KS5	DQ889941	XI_b
484	bryostatin|KS10|DQ889941|ABM63528|BryC|KS3|?	bryostatin	KS10	DQ889941	XI_b
485	mupirocin|KS6|AF318063|AAM12913|MmpD|KS2|lHlM	mupirocin	KS6	AF318063	XI_b
486	myxovirescin|KS12|CP000113|ABF88102|TaP|KS1|RM	myxovirescin	KS12	CP000113	XI_b
487	mupirocin|KS8|AF318063|AAM12913|MmpD|KS4|zDM	mupirocin	KS8	AF318063	XI_b
488	dorrigocin_migrastatin|KS7|GQ274953|ACY01391|MgsF|KS4|eDM	dorrigocin_migrastatin	KS7	GQ274953	XI_b
489	dorrigocin_migrastatin|KS5|GQ274953|ACY01391|MgsF|KS2|dH	dorrigocin_migrastatin	KS5	GQ274953	XI_b
490	dorrigocin_migrastatin|KS8|GQ274953|ACY01391|MgsF|KS5|lHdM	dorrigocin_migrastatin	KS8	GQ274953	XI_b
491	cycloheximide|KS5|JX014302|AFO59866|ChxE|KS5|K	cycloheximide	KS5	JX014302	XI_b
492	9-methylstreptimidone|KS5|FR878059|CCC21123|SmdI|KS5|?	9-methylstreptimidone	KS5	FR878059	XI_b
493	thailanstatin|KS5|JX307851|AGN11881|TstDEF|KS2|?	thailanstatin	KS5	JX307851	XI_b
494	FR901464|KS5|HM047288|ADH01487|Fr9F|KS1|?	FR901464	KS5	HM047288	XI_b
495	bongkrekic_acid|KS3|JX173632|AFN27480|BonA|KS3|?	bongkrekic_acid	KS3	JX173632	XI_b
496	bongkrekic_acid|KS10|JX173632|AFN27483|BonD|KS1|?	bongkrekic_acid	KS10	JX173632	XI_b
497	etnangien|KS8|NC_010162|YP_001613829|EtnF|KS1|dHlM	etnangien	KS8	NC_010162	XI_b
498	elansolid_Csan|KS4|HQ680975|AEC04357|ElaK|KS2|?	elansolid_Csan	KS4	HQ680975	XI_b
499	elansolid_Cpin|KS4|CP001699|ACU62727|ElsJ|KS2|M	elansolid_Cpin	KS4	CP001699	XI_b
500	elansolid_Cpin|KS3|CP001699|ACU62727|ElsJ|KS1|DM	elansolid_Cpin	KS3	CP001699	XI_b
501	elansolid_Csan|KS3|HQ680975|AEC04357|ElaK|KS1|?	elansolid_Csan	KS3	HQ680975	XI_b
502	basiliskamides|KS3|NZ_AXBT01000013|WP_022584873|P615_14880|KS1|?	basiliskamides	KS3	NZ_AXBT01000013	XI_b
503	basiliskamides|KS2|NZ_AXBT01000013|WP_022584874|P615_14885|KS1|?	basiliskamides	KS2	NZ_AXBT01000013	XI_b
504	sorangicin|KS13|HM584908|ADN68479|SorD|KS1|lH+alphalH	sorangicin	KS13	HM584908	XI_b
505	sorangicin|KS18|HM584908|ADN68482|SorG|KS1|lHlM	sorangicin	KS18	HM584908	XI_b
506	sorangicin|KS3|HM584908|ADN68476|SorA|KS3|RdM	sorangicin	KS3	HM584908	XI_b
507	etnangien|KS17|NC_010162|YP_001613832|EtnI|KS1|RlM	etnangien	KS17	NC_010162	XI_b
508	chivosazole|KS3|DQ065771|AAY89049|ChiB|KS3|lHlM	chivosazole	KS3	DQ065771	XI_c
509	rhizopodin|KS6|FR854394|CCA89326|RizB|KS6|?	rhizopodin	KS6	FR854394	XI_c
510	rhizopodin|KS9|FR854394|CCA89327|RizC|KS1|?	rhizopodin	KS9	FR854394	XI_c
511	misakinolide|KS6|?|?|?|KS?|RlM	misakinolide	KS6	?	XI_c
512	luminaolid|KS6|?|?|?|?|?	luminaolid	KS6	?	XI_c
513	tolytoxin|KS6|?|?|?|KS?|?	tolytoxin	KS6	?	XI_c
514	mycosubtilin|KS1|AF184956|AAF08795|MycA|KS1|?	mycosubtilin	KS1	AF184956	XVII
515	bacillomycin|KS1|AY137375|AAN07012|bamA|KS1|?	bacillomycin	KS1	AY137375	XVII
516	iturin|KS1|AB050629|BAB69698|ItuA|KS1|?	iturin	KS1	AB050629	XVII
517	kalimantacin_batumin|KS9|GU479979|ADD82941|Bat3|KS2|R	kalimantacin_batumin	KS9	GU479979	VIII
518	pederin|KS11|AY328023|AAS47562|PedH|KS2|R	pederin	KS11	AY328023	VIII
519	diaphorin|KS11|CP003468|AGS06824|DipO|KS2|?	diaphorin	KS11	CP003468	VIII
520	myxovirescin|KS11|CP000113|ABF92489|TaO|KS4|R	myxovirescin	KS11	CP000113	VIII
521	myxovirescin|KS10|CP000113|ABF92489|TaO|KS3|R	myxovirescin	KS10	CP000113	VIII
522	oocydin_Smar|KS12|JX315603|AFX60317|OocR|KS2|?	oocydin_Smar	KS12	JX315603	VIII
523	oocydin_Ddad|KS12|CP001654|ACS85231|OocR|KS2|?	oocydin_Ddad	KS12	CP001654	VIII
524	rhizoxins|KS10|AM411073|CAL69891|RhiD|KS2|shD	rhizoxins	KS10	AM411073	VIII
525	dorrigocin_migrastatin|KS10|GQ274953|ACY01392|MgsG|KS1|eD	dorrigocin_migrastatin	KS10	GQ274953	VIII
526	dorrigocin_migrastatin|KS9|GQ274953|ACY01391|MgsF|KS6|lH	dorrigocin_migrastatin	KS9	GQ274953	VIII
527	myxovirescin|KS5|CP000113|ABF85931|Ta1|KS5|R	myxovirescin	KS5	CP000113	VIII
528	difficidin|KS3|AJ634062|CAG23977|DifF|KS3|R	difficidin	KS3	AJ634062	VIII
529	difficidin|KS9|AJ634062|CAJ57409|DifI|KS3|R	difficidin	KS9	AJ634062	VIII
530	bacillaene_Bamy|KS2|AJ634060|CAG23957|BaeJ|KS2|R	bacillaene_Bamy	KS2	AJ634060	VIII
531	bacillaene_Bsub|KS2|AL009126|CAB13589|PksJ|KS2|?	bacillaene_Bsub	KS2	AL009126	VIII
532	bacillaene_Bamy|KS11|AJ634060|CAG23960|BaeN|KS2|shD	bacillaene_Bamy	KS11	AJ634060	VIII
533	bacillaene_Bsub|KS12|AL009126|CAB13604|PksN|KS2|?	bacillaene_Bsub	KS12	AL009126	VIII
534	bacillaene_Bamy|KS12|AJ634060|CAG23960|BaeN|KS3|shD	bacillaene_Bamy	KS12	AJ634060	VIII
535	bacillaene_Bsub|KS13|AL009126|CAB13604|PksN|KS3|?	bacillaene_Bsub	KS13	AL009126	VIII
536	myxovirescin|KS9|CP000113|ABF92489|TaO|KS2|R	myxovirescin	KS9	CP000113	VIII
537	bongkrekic_acid|KS8|JX173632|AFN27481|BonB|KS2|?	bongkrekic_acid	KS8	JX173632	VIII
538	oocydin_Smar|KS9|JX315603|AFX60313|OocN|KS5|?	oocydin_Smar	KS9	JX315603	VIII
539	oocydin_Ddad|KS9|CP001654|ACS85227|OocN|KS5|?	oocydin_Ddad	KS9	CP001654	VIII
540	phormidolide|KS3|ALVN01000014|EKU96424|?|KS3|?	phormidolide	KS3	ALVN01000014	VIII
541	sorangicin|KS2|HM584908|ADN68476|SorA|KS2|R	sorangicin	KS2	HM584908	VIII
542	sorangicin|KS11|HM584908|ADN68477|SorB|KS4|R	sorangicin	KS11	HM584908	VIII
543	etnangien|KS11|NC_010162|YP_001613830|EtnG|KS1|R	etnangien	KS11	NC_010162	VIII
544	tartrolon|KS6|CP001614|ACR12418|TrtE|KS3|?	tartrolon	KS6	CP001614	noClade
545	lankacidin|KS1|NC_004808|NP_851440|LkcA|KS1|Agly	lankacidin	KS1	NC_004808	noClade
546	lankacidin|KS4|NC_004808|NP_851435|LkcF|KS2|dH_eD	lankacidin	KS4	NC_004808	noClade
547	seudotrienic_acid|KS6|AKJU01000004|EJM18770|?|KS3|?	seudotrienic_acid	KS6	AKJU01000004	noClade
548	tartrolon|KS8|CP001614|ACR12418|TrtE|KS5|?	tartrolon	KS8	CP001614	noClade
549	tartrolon|KS11|CP001614|ACR13065|TrtF|KS3|?	tartrolon	KS11	CP001614	noClade
550	tartrolon|KS2|CP001614|ACR13997|TrtD|KS2|?	tartrolon	KS2	CP001614	noClade
551	tartrolon|KS7|CP001614|ACR12418|TrtE|KS4|?	tartrolon	KS7	CP001614	noClade
552	FR901464|KS11|HM047288|ADH01490|Fr9I|KS2|?	FR901464	KS11	HM047288	noClade
553	kirromycin|KS6|AM746336|CAN89633|KirAIII|KS1|Agly	kirromycin	KS6	AM746336	noClade
554	legioliulin|KS1|NZ_CM001371|WP_010652552|LglD|KS1|?	legioliulin	KS1	NZ_CM001371	noClade
555	corallopyronin|KS3|HM071004|ADI59531|CorI|KS3|eD	corallopyronin	KS3	HM071004	noClade
556	rhizopodin|KS2|FR854394|CCA89326|RizB|KS2|?	rhizopodin	KS2	FR854394	noClade
557	corallopyronin|KS3|HM071004|ADI59533|CorK|KS3|R	corallopyronin	KS3b	HM071004	noClade
558	corallopyronin|KS5|HM071004|ADI59534|CorL|KS2|R	corallopyronin	KS5b	HM071004	noClade
559	leinamycin|KS7|AF484556|AAN85523|LnmJ|KS4|R	leinamycin	KS7	AF484556	noClade
560	kirromycin|KS9|AM746336|CAN89634|KirAIV|KS3|KdM	kirromycin	KS9	AM746336	noClade
561	kirromycin|KS4|AM746336|CAN89632|KirAII|KS2|lHdiM	kirromycin	KS4	AM746336	noClade
562	kirromycin|KS5|AM746336|CAN89632|KirAII|KS3|dH	kirromycin	KS5	AM746336	noClade
563	chivosazole|KS2|DQ065771|AAY89049|ChiB|KS2|dH	chivosazole	KS2	DQ065771	noClade
564	corallopyronin|KS4|HM071004|ADI59532|CorJ|KS1|shD	corallopyronin	KS4	HM071004	noClade
565	macrolactin|KS3|AJ634061|CAG23964|Pks2B|KS3|R	macrolactin	KS3	AJ634061	noClade
566	disorazole|KS4|DQ013294|AAY32964|DszA|KS4|dH	disorazole	KS4	DQ013294	noClade
567	misakinolide|KS5|?|?|?|KS?|lH_or_dPY	misakinolide	KS5	?	noClade
568	corallopyronin|KS6|HM071004|ADI59532|CorJ|KS3|RM	corallopyronin	KS6	HM071004	noClade
569	corallopyronin|KS1|HM071004|ADI59531|CorI|KS1|methoxycarbonyl	corallopyronin	KS1	HM071004	noClade
570	kirromycin|KS1|AM746336|CAN89631|KirAI|KS1|_Ac	kirromycin	KS1	AM746336	noClade
571	etnangien|KS15|NC_010162|YP_001613831|EtnH|KS1|zD	etnangien	KS15	NC_010162	noClade
572	rhizopodin|KS15|FR854394|CCA89328|RizD|KS5|?	rhizopodin	KS15	FR854394	noClade
573	rhizopodin|KS5|FR854394|CCA89326|RizB|KS5|?	rhizopodin	KS5	FR854394	noClade
574	tartrolon|KS10|CP001614|ACR13065|TrtF|KS2|?	tartrolon	KS10	CP001614	noClade
575	lankacidin|KS5|NC_004808|NP_851434|LkcG|KS1|lHdM	lankacidin	KS5	NC_004808	noClade
576	corallopyronin|KS4|HM071004|ADI59534|CorL|KS1|eDB	corallopyronin	KS4b	HM071004	noClade
577	leinamycin|KS5|AF484556|AAN85523|LnmJ|KS2|K	leinamycin	KS5	AF484556	noClade
578	kirromycin|KS11|AM746336|CAN89634|KirAIV|KS5|dH	kirromycin	KS11	AM746336	noClade